[
    {
        "name": {
            "first": "Леонардо",
            "last": "Ди Каприо"
        },
        "image": "image/dicaprio.png",
        "status": "online",
        "message": "Если нет своей цели в жизни, то приходится работать на того, у кого она есть."
    },
    {
        "name": {
            "first": "Кэти",
            "last": "Перри"
        },
        "image": "image/katy.png",
        "status": "online",
        "message": "Любила всех, И не любила никого."
    },
    {
        "name": {
            "first": "Джордж",
            "last": "Клуни"
        },
        "image": "image/gorge.png",
        "status": "offline",
        "message": "Самое лучшее, что есть в моей жизни, — это друзья, которых я считаю своей настоящей семьей вот уже двадцать пять лет."
    },
    {
        "name": {
            "first": "Владимир",
            "last": "Путин"
        },
        "image": "image/putin.jpg",
        "status": "online",
        "message": "Кто нас обидит, тому в течение трех дней мало не покажется."
    },
    {
        "name": {
            "first": "Анджелина",
            "last": "Джоули"
        },
        "image": "image/andjelina.jpg",
        "status": "offline",
        "message": "Каждый день мы выбираем, кто мы по тому, как мы определяем себя."
    }
]